[
    {
      "dateCreation": "2020-11-10T18:22:53.470Z",
      "nom": "DUPONT",
      "prenom": "DURAND",
      "dateDeNaissance": "1985-12-05T23:00:00.000Z",
      "idApplication": "STEP",
      "idUtilisateurApplication": "01234567891",
      "codeEnvironnement": "2",
      "codeOa": "RGH",
      "numeroContrat": "##RANDOM_NUMBERS##",
      "libelleOa": "RADIANCE GROUPE HUMANIS",
      "codeProduit": "PSP",
      "codeFormule": "INITIAL",
      "numeroDemande": "##RANDOM_UUID##"
    }
  ]