[
    {
        "code": "HOSPI",
        "libelle": "HOSPI",
        "niveau": 1
    },
    {
        "code": "INITIAL",
        "libelle": "INITIAL",
        "niveau": 2
    },
    {
        "code": "INTERMEDIAIRE",
        "libelle": "INTERMEDIAIRE",
        "niveau": 3
    },
    {
        "code": "ETENDU",
        "libelle": "ETENDU",
        "niveau": 4
    },
    {
        "code": "INTEGRAL",
        "libelle": "INTEGRAL",
        "niveau": 5
    }
]