{
    "libelleFormule": "Bien Etre",
    "codeFormule": "BIEN_ETRE",
    "typeFormule": "OPTION",
    "postes": [
        {
            "code": "BIEN_ETRE",
            "libelle": "Bien-être (Plafond global annuel)",
            "numLigneId": 6000,
            "niveauEtoile": 8,
            "avantages": [
                {
                    "libelle": "Kalixia Ostéo : Bénéficiez d'un accès privilégié à nos ostéopathes partenaires, référencés pour la qualité de leur pratique professionnelle avec des honoraires encadrés, conformes aux pratiques du marché et la possibilité de prendre rendez-vous en ligne",
                    "numLigneId": 6130,
                    "expressionLitteralePrestation": "OUI"
                },
                {
                    "libelle": "Médecines douces : Pour mieux vous orienter, Malakoff Humanis a choisi le réseau de thérapeutes Médoucine, qui recense des praticiens professionnels, sélectionnés pour leur sérieux",
                    "numLigneId": 6140,
                    "expressionLitteralePrestation": "OUI"
                }
            ],
            "sousPostes": [
                {
                    "libelle": "Cure thermales en France remboursée par la Sécurité sociale",
                    "numLigneId": 6010,
                    "garanties": [
                        {
                            "libelle": "Supplément cure thermales (Forfait global incluant honoraires, traitement thermal, hébergement et transport)",
                            "numLigneId": 6020,
                            "valeurPrestation1": "75",
                            "unitePrestation1": "€",
                            "expressionLitteralePrestation": "75 €",
                            "garantiePhare": true
                        }
                    ]
                },
                {
                    "libelle": "Médecine additionnelle",
                    "numLigneId": 6030,
                    "garanties": [
                        {
                            "libelle": "Renfort ostéopathe, homéopathe, étiopathe, mésothérapeute, acupuncteur - maximum 25 € / séance",
                            "numLigneId": 6050,
                            "garantiePhare": true
                        },
                        {
                            "libelle": "Renfort pédicure-podologue - maximum 25 € / séance",
                            "numLigneId": 6060,
                            "garantiePhare": true
                        }
                    ]
                }
            ]
        }
    ]
}