{
    "foyerAnnuel": {
        "cotisation": 1240.68,
        "reductionsStandard": 176.52,
        "tarifBareme": {
            "tarifBaremeAvecOption": 1417.20,
            "tarifBaremeHorsOption": 1417.20,
            "tarifOption": 0.00
        }
    },
    "foyerMensuel": {
        "cotisation": 103.39,
        "reductionsStandard": 14.71,
        "tarifBareme": {
            "tarifBaremeAvecOption": 118.10,
            "tarifBaremeHorsOption": 118.10,
            "tarifOption": 0.00
        },
        "taxeSolidariteAdditionnelle": {
            "montant": 20.96,
            "taux": 20.27
        }
    },
    "membres": [
        {
            "tarifs": [
                {
                    "cotisationTTC": 23.25,
                    "groupeReductionStandard": {
                        "montantTotal": 3.94,
                        "reductionsStandard": [
                            {
                                "montant": 1.36,
                                "taux": 5.00,
                                "type": "Réduction couple"
                            },
                            {
                                "montant": 2.58,
                                "taux": 10.00,
                                "type": "Réduction Sortie de groupe Santé MH"
                            }
                        ]
                    },
                    "periodicite": "MENSUEL",
                    "tarifBareme": 27.19
                },
                {
                    "cotisationTTC": 279.00,
                    "groupeReductionStandard": {
                        "montantTotal": 47.28,
                        "reductionsStandard": [
                            {
                                "montant": 16.32,
                                "taux": 5.00,
                                "type": "Réduction couple"
                            },
                            {
                                "montant": 30.96,
                                "taux": 10.00,
                                "type": "Réduction Sortie de groupe Santé MH"
                            }
                        ]
                    },
                    "periodicite": "ANNUEL",
                    "tarifBareme": 326.28
                }
            ],
            "typeMembre": "PARTICIPANT"
        },
        {
            "tarifs": [
                {
                    "cotisationTTC": 31.82,
                    "groupeReductionStandard": {
                        "montantTotal": 5.40,
                        "reductionsStandard": [
                            {
                                "montant": 1.86,
                                "taux": 5.00,
                                "type": "Réduction couple"
                            },
                            {
                                "montant": 3.54,
                                "taux": 10.00,
                                "type": "Réduction Sortie de groupe Santé MH"
                            }
                        ]
                    },
                    "periodicite": "MENSUEL",
                    "tarifBareme": 37.22
                },
                {
                    "cotisationTTC": 381.84,
                    "groupeReductionStandard": {
                        "montantTotal": 64.80,
                        "reductionsStandard": [
                            {
                                "montant": 22.32,
                                "taux": 5.00,
                                "type": "Réduction couple"
                            },
                            {
                                "montant": 42.48,
                                "taux": 10.00,
                                "type": "Réduction Sortie de groupe Santé MH"
                            }
                        ]
                    },
                    "periodicite": "ANNUEL",
                    "tarifBareme": 446.64
                }
            ],
            "typeMembre": "CONJOINT"
        },
        {
            "tarifs": [
                {
                    "cotisationTTC": 24.47,
                    "groupeReductionStandard": {
                        "montantTotal": 2.72,
                        "reductionsStandard": [
                            {
                                "montant": 2.72,
                                "taux": 10.00,
                                "type": "Réduction Sortie de groupe Santé MH"
                            }
                        ]
                    },
                    "periodicite": "MENSUEL",
                    "tarifBareme": 27.19
                },
                {
                    "cotisationTTC": 293.64,
                    "groupeReductionStandard": {
                        "montantTotal": 32.64,
                        "reductionsStandard": [
                            {
                                "montant": 32.64,
                                "taux": 10.00,
                                "type": "Réduction Sortie de groupe Santé MH"
                            }
                        ]
                    },
                    "periodicite": "ANNUEL",
                    "tarifBareme": 326.28
                }
            ],
            "typeMembre": "ENFANT"
        },
        {
            "tarifs": [
                {
                    "cotisationTTC": 23.85,
                    "groupeReductionStandard": {
                        "montantTotal": 2.65,
                        "reductionsStandard": [
                            {
                                "montant": 2.65,
                                "taux": 10.00,
                                "type": "Réduction Sortie de groupe Santé MH"
                            }
                        ]
                    },
                    "periodicite": "MENSUEL",
                    "tarifBareme": 26.50
                },
                {
                    "cotisationTTC": 286.20,
                    "groupeReductionStandard": {
                        "montantTotal": 31.80,
                        "reductionsStandard": [
                            {
                                "montant": 31.80,
                                "taux": 10.00,
                                "type": "Réduction Sortie de groupe Santé MH"
                            }
                        ]
                    },
                    "periodicite": "ANNUEL",
                    "tarifBareme": 318.00
                }
            ],
            "typeMembre": "ENFANT"
        },
        {
            "tarifs": [
                {
                    "cotisationTTC": 0.00,
                    "groupeReductionStandard": {
                        "montantTotal": 0.00
                    },
                    "periodicite": "MENSUEL",
                    "tarifBareme": 0.00
                },
                {
                    "cotisationTTC": 0.00,
                    "groupeReductionStandard": {
                        "montantTotal": 0.00
                    },
                    "periodicite": "ANNUEL",
                    "tarifBareme": 0.00
                }
            ],
            "typeMembre": "ENFANT"
        }
    ]
}